{
  "body": {
    "page": 2,
    "per_page": 6,
    "total": 12,
    "total_pages": 2,
    "data": [
      {
        "id": 7,
        "email": "michael.lawson@reqres.in",
        "first_name": "Michael",
        "last_name": "Lawson",
        "avatar": "https://reqres.in/img/faces/7-image.jpg"
      },
      {
        "id": 8,
        "email": "lindsay.ferguson@reqres.in",
        "first_name": "Lindsay",
        "last_name": "Ferguson",
        "avatar": "https://reqres.in/img/faces/8-image.jpg"
      },
      {
        "id": 9,
        "email": "tobias.funke@reqres.in",
        "first_name": "Tobias",
        "last_name": "Funke",
        "avatar": "https://reqres.in/img/faces/9-image.jpg"
      },
      {
        "id": 10,
        "email": "byron.fields@reqres.in",
        "first_name": "Byron",
        "last_name": "Fields",
        "avatar": "https://reqres.in/img/faces/10-image.jpg"
      },
      {
        "id": 11,
        "email": "george.edwards@reqres.in",
        "first_name": "George",
        "last_name": "Edwards",
        "avatar": "https://reqres.in/img/faces/11-image.jpg"
      },
      {
        "id": 12,
        "email": "rachel.howell@reqres.in",
        "first_name": "Rachel",
        "last_name": "Howell",
        "avatar": "https://reqres.in/img/faces/12-image.jpg"
      }
    ],
    "support": {
      "url": "https://contentcaddy.io?utm_source=reqres&utm_medium=json&utm_campaign=referral",
      "text": "Tired of writing endless social media content? Let Content Caddy generate it for you."
    }
  },
  "headers": {
    "date": "Wed, 18 Jun 2025 09:33:26 GMT",
    "content-type": "application/json; charset=utf-8",
    "transfer-encoding": "chunked",
    "connection": "keep-alive",
    "content-encoding": "gzip",
    "report-to": "{\"group\":\"heroku-nel\",\"max_age\":3600,\"endpoints\":[{\"url\":\"https://nel.heroku.com/reports?ts=1750238198&sid=c4c9725f-1ab0-44d8-820f-430df2718e11&s=IvoJzEsp9iTdQva06qol7n0wAGCndvUhVwJw76rSYNQ%3D\"}]}",
    "reporting-endpoints": "heroku-nel=https://nel.heroku.com/reports?ts=1750238198&sid=c4c9725f-1ab0-44d8-820f-430df2718e11&s=IvoJzEsp9iTdQva06qol7n0wAGCndvUhVwJw76rSYNQ%3D",
    "nel": "{\"report_to\":\"heroku-nel\",\"max_age\":3600,\"success_fraction\":0.005,\"failure_fraction\":0.05,\"response_headers\":[\"Via\"]}",
    "x-powered-by": "Express",
    "access-control-allow-origin": "*",
    "ratelimit-policy": "100;w=60",
    "ratelimit-limit": "100",
    "ratelimit-remaining": "98",
    "ratelimit-reset": "60",
    "etag": "W/\"440-ZjsmMKR8P3usr2uJZbOCGCxC3Uw\"",
    "via": "1.1 vegur",
    "cache-control": "max-age=14400",
    "cf-cache-status": "HIT",
    "age": "1008",
    "vary": "Accept-Encoding",
    "server": "cloudflare",
    "cf-ray": "9519c8fd6e8ca8fb-MAA",
    "server-timing": "cfL4;desc=\"?proto=TCP&rtt=20297&min_rtt=15537&rtt_var=9338&sent=448&recv=446&lost=0&retrans=0&sent_bytes=8290&recv_bytes=1375&delivery_rate=280086&cwnd=255&unsent_bytes=0&cid=d19a560888cff90d&ts=446706&x=0\""
  },
  "status": 200,
  "statusText": "OK",
  "isOkStatusCode": true,
  "requestHeaders": {
    "Connection": "keep-alive",
    "user-agent": "Mozilla/5.0 (Windows NT 10.0; Win64; x64) AppleWebKit/537.36 (KHTML, like Gecko) Chrome/137.0.0.0 Safari/537.36",
    "accept": "*/*",
    "accept-encoding": "gzip, deflate"
  },
  "duration": 87,
  "allRequestResponses": [
    {
      "Request Body": null,
      "Request Headers": {
        "Connection": "keep-alive",
        "user-agent": "Mozilla/5.0 (Windows NT 10.0; Win64; x64) AppleWebKit/537.36 (KHTML, like Gecko) Chrome/137.0.0.0 Safari/537.36",
        "accept": "*/*",
        "accept-encoding": "gzip, deflate"
      },
      "Request URL": "https://reqres.in/api/users?page=2",
      "Response Body": "{\"page\":2,\"per_page\":6,\"total\":12,\"total_pages\":2,\"data\":[{\"id\":7,\"email\":\"michael.lawson@reqres.in\",\"first_name\":\"Michael\",\"last_name\":\"Lawson\",\"avatar\":\"https://reqres.in/img/faces/7-image.jpg\"},{\"id\":8,\"email\":\"lindsay.ferguson@reqres.in\",\"first_name\":\"Lindsay\",\"last_name\":\"Ferguson\",\"avatar\":\"https://reqres.in/img/faces/8-image.jpg\"},{\"id\":9,\"email\":\"tobias.funke@reqres.in\",\"first_name\":\"Tobias\",\"last_name\":\"Funke\",\"avatar\":\"https://reqres.in/img/faces/9-image.jpg\"},{\"id\":10,\"email\":\"byron.fields@reqres.in\",\"first_name\":\"Byron\",\"last_name\":\"Fields\",\"avatar\":\"https://reqres.in/img/faces/10-image.jpg\"},{\"id\":11,\"email\":\"george.edwards@reqres.in\",\"first_name\":\"George\",\"last_name\":\"Edwards\",\"avatar\":\"https://reqres.in/img/faces/11-image.jpg\"},{\"id\":12,\"email\":\"rachel.howell@reqres.in\",\"first_name\":\"Rachel\",\"last_name\":\"Howell\",\"avatar\":\"https://reqres.in/img/faces/12-image.jpg\"}],\"support\":{\"url\":\"https://contentcaddy.io?utm_source=reqres&utm_medium=json&utm_campaign=referral\",\"text\":\"Tired of writing endless social media content? Let Content Caddy generate it for you.\"}}",
      "Response Headers": {
        "date": "Wed, 18 Jun 2025 09:33:26 GMT",
        "content-type": "application/json; charset=utf-8",
        "transfer-encoding": "chunked",
        "connection": "keep-alive",
        "content-encoding": "gzip",
        "report-to": "{\"group\":\"heroku-nel\",\"max_age\":3600,\"endpoints\":[{\"url\":\"https://nel.heroku.com/reports?ts=1750238198&sid=c4c9725f-1ab0-44d8-820f-430df2718e11&s=IvoJzEsp9iTdQva06qol7n0wAGCndvUhVwJw76rSYNQ%3D\"}]}",
        "reporting-endpoints": "heroku-nel=https://nel.heroku.com/reports?ts=1750238198&sid=c4c9725f-1ab0-44d8-820f-430df2718e11&s=IvoJzEsp9iTdQva06qol7n0wAGCndvUhVwJw76rSYNQ%3D",
        "nel": "{\"report_to\":\"heroku-nel\",\"max_age\":3600,\"success_fraction\":0.005,\"failure_fraction\":0.05,\"response_headers\":[\"Via\"]}",
        "x-powered-by": "Express",
        "access-control-allow-origin": "*",
        "ratelimit-policy": "100;w=60",
        "ratelimit-limit": "100",
        "ratelimit-remaining": "98",
        "ratelimit-reset": "60",
        "etag": "W/\"440-ZjsmMKR8P3usr2uJZbOCGCxC3Uw\"",
        "via": "1.1 vegur",
        "cache-control": "max-age=14400",
        "cf-cache-status": "HIT",
        "age": "1008",
        "vary": "Accept-Encoding",
        "server": "cloudflare",
        "cf-ray": "9519c8fd6e8ca8fb-MAA",
        "server-timing": "cfL4;desc=\"?proto=TCP&rtt=20297&min_rtt=15537&rtt_var=9338&sent=448&recv=446&lost=0&retrans=0&sent_bytes=8290&recv_bytes=1375&delivery_rate=280086&cwnd=255&unsent_bytes=0&cid=d19a560888cff90d&ts=446706&x=0\""
      },
      "Response Status": 200
    }
  ]
}